{
  "name": "variants",
  "plural": "variants",
  "base": "PersistedModel",
  "idInjection": true,
  "options": {
    "validateUpsert": true
  },
  "mixins": {
    "Default": {}
  },
  "properties": {
    "id": {
      "type": "number",
      "required": true
    },
    "question_id": {
      "type": "number"
    },
    "variant": {
      "type": "string",
      "required": true
    }
  },
  "validations": [],
  "relations": {
    "questions": {
      "type": "belongsTo",
      "model": "questions",
      "foreignKey": "question_id"
    }
  },
  "acls": [],
  "methods": {}
}