{
  "name": "seo_data",
  "plural": "seo_data",
  "base": "PersistedModel",
  "idInjection": true,
  "options": {
    "validateUpsert": true
  },
  "mixins": {
    "Default": {}
  },
  "properties": {
    "id": {
      "type": "number",
      "required": true
    },
    "alias_url": {
      "type": "string"
    },
    "title": {
      "type": "string"
    },
    "keywords": {
      "type": "string"
    },
    "definition": {
      "type": "string"
    },
    "h1": {
      "type": "string"
    },
    "page_id": {
      "type": "number"
    }
  },
  "validations": [],
  "relations": {
    "pages": {
      "type": "belongsTo",
      "model": "pages",
      "foreignKey": "page_id"
    }
  },
  "acls": [],
  "methods": {}
}