{
  "name": "types",
  "plural": "types",
  "base": "PersistedModel",
  "idInjection": true,
  "options": {
    "validateUpsert": true
  },
  "mixins": {
    "Default": {}
  },
  "properties": {
    "id": {
      "type": "number",
      "required": true
    },
    "title": {
      "type": "string",
      "required": true
    }
  },
  "validations": [],
  "relations": {
    "exponats": {
      "type": "hasMany",
      "model": "exponats",
      "foreignKey": "type_id",
      "through": "exponats_types"
    }
  },
  "acls": [],
  "methods": {}
}