{
  "name": "addresses",
  "plural": "addresses",
  "base": "PersistedModel",
  "idInjection": true,
  "options": {
    "validateUpsert": true
  },
  "mixins": {
    "Default": {}
  },
  "properties": {
    "id": {
      "type": "number",
      "required": true
    },
    "country_id": {
      "type": "number"
    },
    "city_id": {
      "type": "number"
    },
    "street_id": {
      "type": "number"
    },
    "index": {
      "type": "number"
    },
    "house": {
      "type": "string"
    }
  },
  "hidden": [
    "country_id",
    "city_id",
    "street_id"
  ],
  "validations": [],
  "relations": {},
  "acls": [],
  "methods": {}
}