{
  "name": "companies_addresses",
  "plural": "companies_addresses",
  "base": "PersistedModel",
  "idInjection": true,
  "options": {
    "validateUpsert": true
  },
  "mixins": {
    "Default": {}
  },
  "properties": {
    "company_id": {
        "type": "number",
        "required": true
    },
    "address_id": {
        "type": "number",
        "required": true
    },
    "id": {
      "type": "number",
      "required": true
    }
  },
  "validations": [],
  "relations": {
    "company": {
      "type": "belongsTo",
      "model": "companies",
      "foreignKey": "company_id"
    },
    "address": {
      "type": "belongsTo",
      "model": "addresses",
      "foreignKey": "address_id"
    }
  },
  "acls": [],
  "methods": {}
}