{
  "name": "profiles_contacts",
  "plural": "profiles_contacts",
  "base": "PersistedModel",
  "idInjection": false,
  "options": {
    "validateUpsert": true
  },
  "properties": {
    "contact_id": {
      "type": "number",
      "required": true
    },
    "profile_id": {
      "type": "number",
      "required": true
    }
  },
  "validations": [],
  "relations": {
    "profile": {
      "type": "belongsTo",
      "model": "profiles",
      "foreignKey": "profile_id"
    },
    "contact": {
      "type": "belongsTo",
      "model": "profiles",
      "foreignKey": "contact_id"
    }
  },
  "acls": [],
  "methods": {}
}