{
  "name": "objects",
  "base": "PersistedModel",
  "idInjection": true,
  "options": {
    "validateUpsert": true
  },
  "mixins": {
    "Default": {}
  },
  "properties": {
    "id": {
      "type": "number",
      "required": true
    },
    "map_id": {
      "type": "number",
      "required": true
    },
    "color": {
      "type": "string"
    },
    "definition": {
      "type": "string"
    },
    "name": {
      "type": "string"
    },
    "name_eng": {
      "type": "string"
    },
    "pos": {
      "type": "string"
    },
    "size": {
      "type": "string"
    },
    "global_num": {
      "type": "number"
    },
    "local_num": {
      "type": "number"
    }
  },
  "validations": [],
  "relations": {},
  "acls": [],
  "methods": {}
}
