{
  "name": "forum",
  "plural": "forum",
  "base": "PersistedModel",
  "idInjection": true,
  "options": {
    "validateUpsert": true
  },
  "mixins": {
    "Default": {}
  },
  "properties": {
    "id": {
      "type": "number",
      "required": true
    },
    "name": {
      "type": "string",
      "required": true
    },
    "goals": {
      "type": "string",
      "required": true,
      "dataType": "text"
    },
    "tasks": {
      "type": "string",
      "required": true,
      "dataType": "text"
    },
    "end_date": {
      "type": "date",
      "required": true,
      "format": "date-time"
    },
    "start_date": {
      "type": "date",
      "required": true,
      "format": "date-time"
    },
    "status": {
      "type": "number",
      "required": true
    }
  },
  "validations": [],
  "relations": {},
  "acls": [],
  "methods": {}
}
