{
  "name": "jobs",
  "plural": "jobs",
  "base": "PersistedModel",
  "idInjection": true,
  "options": {
    "validateUpsert": true
  },
  "mixins": {
    "Default": {}
  },
  "properties": {
    "id": {
      "type": "number",
      "required": true
    },
    "title": {
      "type": "string",
      "required": true
    },
    "contacts": {
      "type": "string",
      "required": true
    },
    "status": {
      "type": "boolean",
      "required": true
    },
    "definition": {
      "type": "string",
      "required": true
    }
  },
  "validations": [],
  "relations": {},
  "acls": [],
  "methods": {}
}
