{
  "name": "events_profiles",
  "plural": "events_profiles",
  "base": "PersistedModel",
  "idInjection": true,
  "options": {
    "validateUpsert": true
  },
  "properties": {
    "id": {
      "type": "number",
      "required": true
    },
    "event_id": {
      "type": "number",
      "required": true
    },
    "profile_id": {
      "type": "number",
      "required": true
    }
  },
  "validations": [],
  "relations": {
    "event": {
      "type": "belongsTo",
      "model": "events",
      "foreignKey": "event_id"
    },
    "profile": {
      "type": "belongsTo",
      "model": "profiles",
      "foreignKey": "profile_id"
    }
  },
  "acls": [],
  "methods": {}
}